Be the Master of the Meta Data Universe • MetaMaster
…
# A tibble: 6 × 3
#      sid surveyls_title                       template                       
#    <int> <chr>                                <chr>                          
# 1 197865 master_01_bfr_allg_gm_elt_00_2022_v4 tmpl_bfr_allg_gm_elt_00_2022_p1
# 2 197865 master_01_bfr_allg_gm_elt_00_2022_v4 tmpl_bfr_allg_gm_elt_00_2022_p3
# 3 197865 master_01_bfr_allg_gm_elt_00_2022_v4 tmpl_bfr_allg_rs_elt_00_2022_p1
# 4 197865 master_01_bfr_allg_gm_elt_00_2022_v4 tmpl_bfr_beru_ws_elt_00_2022_p1
# 5 943467 master_02_bfr_allg_gm_elt_01_2022_v4 tmpl_bfr_allg_gm_elt_01_2022_p2
# 6 943467 master_02_bfr_allg_gm_elt_01_2022_v4 tmpl_bfr_allg_gm_elt_01_2022_p4

Next, we can retrieve survey questions and texts via the API. The function Limer_GetMasterQuesions() returns the plot, variable, and text for survey questions of a given master template. The function needs the survey ID (sid) and the name of the master template (name).

LS_GetMasterQuestions(id = df$sid[1], name = df$surveyls_title[1])

# A tibble: 29 × 5
#    surveyID template                             plot  variable  text                   
#       <int> <chr>                                <chr> <chr>     <chr>                  
#  1   197865 master_01_bfr_allg_gm_elt_00_2022_v4 E01   B131W124E An dieser Schule herrs…
#  2   197865 master_01_bfr_allg_gm_elt_00_2022_v4 E01   B132a     Mein Sohn/meine Tochte…
#  3   197865 master_01_bfr_allg_gm_elt_00_2022_v4 E01   B132c     Die Räume der Schule b…
#  4   197865 master_01_bfr_allg_gm_elt_00_2022_v4 E01   B133b     Die Schule ist ein sic…
#  5   197865 master_01_bfr_allg_gm_elt_00_2022_v4 E02   B334W125a An dieser Schule wird …
#  6   197865 master_01_bfr_allg_gm_elt_00_2022_v4 E02   B334W125b Wenn es Konflikte gibt…
#  7   197865 master_01_bfr_allg_gm_elt_00_2022_v4 E02   B333      Mein Sohn/meine Tochte…
#  8   197865 master_01_bfr_allg_gm_elt_00_2022_v4 E03   A632e     Mein Sohn/meine Tochte…
#  9   197865 master_01_bfr_allg_gm_elt_00_2022_v4 E03   A633e     Mein Sohn/meine Tochte…
# 10   197865 master_01_bfr_allg_gm_elt_00_2022_v4 E03   A631      Mein Sohn/meine Tochte…
# ℹ 19 more rows
# ℹ Use `print(n = ...)` to see more rows
…
