…
    Sys.setenv(R_CONFIG_ACTIVE = "production")

## Meta Master in Action

The `get_MasterTemplate()` function returns the name of master template
for a specific school type (e.g. `sart = 'gs'`). If the parameter `sart`
is missing, the function returns the all master templates.

    #Load the package
    library(MetaMaster)

    #Get master template for all school types
    mastertemplatesdf <- get_MasterTemplate()
    mastertemplatesdf
    #> # A tibble: 36 × 2
    #>    sid    surveyls_title                      
    #>    <chr>  <chr>                               
    #>  1 197865 master_01_bfr_allg_gm_elt_00_2022_v4
    #>  2 943467 master_02_bfr_allg_gm_elt_01_2022_v4
    #>  3 866667 master_03_bfr_allg_gm_leh_00_2022_v4
    #>  4 383484 master_04_bfr_allg_gs_elt_00_2022_v4
    #>  5 687118 master_05_bfr_allg_gs_elt_01_2022_v4
    #>  6 661758 master_06_bfr_allg_gs_leh_00_2022_v4
    #>  7 573979 master_07_bfr_allg_gs_sus_00_2022_v4
    #>  8 294498 master_08_bfr_allg_gs_sus_02_2022_v4
    #>  9 488727 master_09_bfr_allg_gy_elt_00_2022_v4
    #> 10 197211 master_10_bfr_allg_gy_elt_01_2022_v4
    #> # ℹ 26 more rows

The latter is used to retrieve the meta data for all master templates:
The `get_MasterMeta()` function returns the metadata for a specific
master template. As the next console underlines, it needs a `surveyID`
and `name` of the survey. The function returns variable names and text
from the LimeSurvey API.

    #Get metadata for a specific master template
    get_MasterMeta(id = "197865",
                   name = "master_01_bfr_allg_gm_elt_00_2022_v4")
    #> # A tibble: 29 × 4
    #>    surveyID template                             variable  var_text                              
    #>    <chr>    <chr>                                <chr>     <chr>                                 
    #>  1 197865   master_01_bfr_allg_gm_elt_00_2022_v4 B131W124E "An dieser Schule herrscht ein freund…
    #>  2 197865   master_01_bfr_allg_gm_elt_00_2022_v4 B132a     "Mein Sohn/meine Tochter fühlt sich a…
    #>  3 197865   master_01_bfr_allg_gm_elt_00_2022_v4 B132c     "Die Räume der Schule bieten eine ang…
    #>  4 197865   master_01_bfr_allg_gm_elt_00_2022_v4 B133b     "Die Schule ist ein sicherer Ort."    
    #>  5 197865   master_01_bfr_allg_gm_elt_00_2022_v4 B334W125a "An dieser Schule wird konsequent geg…
    #>  6 197865   master_01_bfr_allg_gm_elt_00_2022_v4 B334W125b "Wenn es Konflikte gibt, trägt die Sc…
    #>  7 197865   master_01_bfr_allg_gm_elt_00_2022_v4 B333      "Mein Sohn/meine Tochter lernt an die…
    #>  8 197865   master_01_bfr_allg_gm_elt_00_2022_v4 A632e     "Mein Sohn/meine Tochter lernt in der…
    #>  9 197865   master_01_bfr_allg_gm_elt_00_2022_v4 A633e     "Mein Sohn/meine Tochter erfährt in d…
    #> 10 197865   master_01_bfr_allg_gm_elt_00_2022_v4 A631      "Mein Sohn/meine Tochter lernt in der…
    #> # ℹ 19 more rows
…
    #Create a new survey
    send_survey(lss = "struktur_LimeSurvey.lss",
                name = "SurveyName")

## Further Helpers

In order to create PDF reports, we need to identify the survey and
report template based on school characteristics. The `get_metalist()`
function returns the names of all survey and report templates and
includes the school characteristics. The results are based on the
`masterToTemplates` file and not via the LimeSurvey API.

    #Inspect all master and report templates
    get_metalist()
    #> # A tibble: 75 × 7
    #>    master                               template                 report ubb   stype type  ganztag
    #>    <chr>                                <chr>                    <chr>  <chr> <chr> <chr> <chr>  
    #>  1 master_01_bfr_allg_gm_elt_00_2022_v4 tmpl_bfr_allg_gm_elt_00… rpt_e… FALSE gm    elt   FALSE  
    #>  2 master_01_bfr_allg_gm_elt_00_2022_v4 tmpl_bfr_allg_rs_elt_00… rpt_e… FALSE rs    elt   FALSE  
    #>  3 master_01_bfr_allg_gm_elt_00_2022_v4 tmpl_bfr_beru_ws_elt_00… rpt_e… FALSE beru… elt   FALSE  
    #>  4 master_02_bfr_allg_gm_elt_01_2022_v4 tmpl_bfr_allg_gm_elt_01… rpt_e… FALSE gm    elt   TRUE   
    #>  5 master_03_bfr_allg_gm_leh_00_2022_v4 tmpl_bfr_allg_gm_leh_00… rpt_l… FALSE gm    leh   FALSE  
    #>  6 master_03_bfr_allg_gm_leh_00_2022_v4 tmpl_bfr_allg_gm_leh_00… rpt_l… FALSE gm    leh   TRUE   
    #>  7 master_04_bfr_allg_gs_elt_00_2022_v4 tmpl_bfr_allg_gs_elt_00… rpt_e… FALSE gs    elt   FALSE  
    #>  8 master_05_bfr_allg_gs_elt_01_2022_v4 tmpl_bfr_allg_gs_elt_01… rpt_e… FALSE gs    elt   TRUE   
    #>  9 master_06_bfr_allg_gs_leh_00_2022_v4 tmpl_bfr_allg_gs_leh_00… rpt_l… FALSE gs    leh   FALSE  
    #> 10 master_06_bfr_allg_gs_leh_00_2022_v4 tmpl_bfr_allg_gs_leh_00… rpt_l… FALSE gs    leh   TRUE   
    #> # ℹ 65 more rows
