…
## MetaMaster Under the Hood

The `LS_GetMasterData()` function creates the raw meta data. The function gets all master templates from the LimeSurvey API and retrieves for each master the survey question, id, so on. The function returns a tibble or exports the data if the `export` parameter is set to `TRUE`.

```{r, eval=FALSE}
#Get the survey questions for the first three master templates
LS_GetMasterData(export = TRUE)
# ✔ Master Data exported.  
```

The `LS_GetMasterData()` is a wrapper function that combines the `LS_GetMasterTemplates()` and the `LS_GetMasterQuestions()` function. Under the hood, the `LS_GetMasterTemplates()` function gets all master templates from the Lime Survey API first. The function returns a tibble with the survey id, the survey title, and the template name (from the master to template file).

```{r, eval=FALSE}
LS_GetMasterTemplates(template = TRUE)
# # A tibble: 95 × 3
#    sid    surveyls_title                       template                       
#    <chr>  <chr>                                <chr>                          
#  1 197865 master_01_bfr_allg_gm_elt_00_2022_v4 tmpl_bfr_allg_gm_elt_00_2022_p1
#  2 197865 master_01_bfr_allg_gm_elt_00_2022_v4 tmpl_bfr_allg_gm_elt_00_2022_p3
#  3 197865 master_01_bfr_allg_gm_elt_00_2022_v4 tmpl_bfr_allg_rs_elt_00_2022_p1
#  4 197865 master_01_bfr_allg_gm_elt_00_2022_v4 tmpl_bfr_beru_ws_elt_00_2022_p1
#  5 943467 master_02_bfr_allg_gm_elt_01_2022_v4 tmpl_bfr_allg_gm_elt_01_2022_p2
#  6 943467 master_02_bfr_allg_gm_elt_01_2022_v4 tmpl_bfr_allg_gm_elt_01_2022_p4
#  7 866667 master_03_bfr_allg_gm_leh_00_2022_v4 tmpl_bfr_allg_gm_leh_00_2022_p1
#  8 866667 master_03_bfr_allg_gm_leh_00_2022_v4 tmpl_bfr_allg_gm_leh_00_2022_p2
#  9 866667 master_03_bfr_allg_gm_leh_00_2022_v4 tmpl_bfr_allg_gm_leh_00_2022_p3
# 10 866667 master_03_bfr_allg_gm_leh_00_2022_v4 tmpl_bfr_allg_gm_leh_00_2022_p4
# # ℹ 85 more rows
# # ℹ Use `print(n = ...)` to see more rows
```

The `LS_GetMasterQuestions()` function gets the survey questions for a specific master template. The function needs the survey id and the template name as input. The function returns a tibble with the survey id, the template name, the plot, the variable, the text, and the filter indicator.

```{r, eval=FALSE}
LS_GetMasterQuestions(id = "197865", name = "master_01_bfr_allg_gm_elt_00_2022_v4")

# # A tibble: 29 × 6
#    surveyID template                             plot  variable      text              filter
#    <chr>    <chr>                                <chr> <chr>         <chr>             <chr> 
#  1 197865   master_01_bfr_allg_gm_elt_00_2022_v4 E01   B131W124EB13a An dieser Schule… FALSE 
#  2 197865   master_01_bfr_allg_gm_elt_00_2022_v4 E01   B132aB13a     Mein Sohn/meine … FALSE 
#  3 197865   master_01_bfr_allg_gm_elt_00_2022_v4 E01   B132cB13a     Die Räume der Sc… FALSE 
#  4 197865   master_01_bfr_allg_gm_elt_00_2022_v4 E01   B133bB13a     Die Schule ist e… FALSE 
#  5 197865   master_01_bfr_allg_gm_elt_00_2022_v4 E02   B334W125aB33a An dieser Schule… FALSE 
#  6 197865   master_01_bfr_allg_gm_elt_00_2022_v4 E02   B334W125bB33a Wenn es Konflikt… FALSE 
#  7 197865   master_01_bfr_allg_gm_elt_00_2022_v4 E02   B333B33a      Mein Sohn/meine … FALSE 
#  8 197865   master_01_bfr_allg_gm_elt_00_2022_v4 E03   A632eA063     Mein Sohn/meine … FALSE 
#  9 197865   master_01_bfr_allg_gm_elt_00_2022_v4 E03   A633eA063     Mein Sohn/meine … FALSE 
# 10 197865   master_01_bfr_allg_gm_elt_00_2022_v4 E03   A631A063      Mein Sohn/meine … FALSE 
# # ℹ 19 more rows
# # ℹ Use `print(n = ...)` to see more rows
```




The `prepare_RawMeta()` function convert the raw data into the Master Meta data. Based on the raw data, we build the two most important tables of the meta data. The templates table contains information about the report template that will be used for the report. And the report table contains information about the variables, plost, and the labels for each report template.


In addition, the meta data contains information abouts sets, colors, and further smaller tables which will not(!) be generated automatically. Let's revise them with the `DB_Table()` function, which grabs a table from the data base. The sets table contains information about the (color) sets, the labels, and so on.

```{r, eval=FALSE}
sets <- DB_Table("sets")
sets
# # A tibble: 54 × 7
#    set   code  labels               sort  colors  text_color timestamp          
#    <chr> <chr> <chr>                <chr> <chr>   <chr>      <dttm>             
#  1 set01 1     stimmt gar nicht     1     #7b3294 white      2024-11-07 14:32:34
#  2 set01 2     stimmt eher nicht    2     #c2a5cf black      2024-11-07 14:32:34
#  3 set01 3     stimmt zum Teil      3     #f7f7f7 black      2024-11-07 14:32:34
#  4 set01 4     stimmt eher          4     #a6dba0 black      2024-11-07 14:32:34
#  5 set01 5     stimmt ganz genau    5     #008837 white      2024-11-07 14:32:34
#  6 set01 6     weiß nicht           6     #d0cece black      2024-11-07 14:32:34
#  7 set03 1     gar nicht zufrieden  1     #7b3294 white      2024-11-07 14:32:34
#  8 set03 2     eher nicht zufrieden 2     #c2a5cf black      2024-11-07 14:32:34
#  9 set03 3     eher zufrieden       3     #a6dba0 black      2024-11-07 14:32:34
# 10 set03 4     sehr zufrieden       4     #008837 white      2024-11-07 14:32:34
# # ℹ 44 more rows
```

The plots_headers table contains information about plot name and the header(s) that will show up in the report.

```{r, eval=TRUE}
plots_headers <- DB_Table("plots_headers")
plots_headers
#> # A tibble: 112 × 5
#>     sort plot  header1                               header2 timestamp          
#>    <dbl> <chr> <chr>                                 <chr>   <dttm>             
#>  1     1 A11   A1 Klassenführung                     A1.1 D… 2024-11-07 14:32:35
#>  2     2 A12   A1 Klassenführung                     A1.2 D… 2024-11-07 14:32:35
#>  3     3 A13   A1 Klassenführung                     A1.3 D… 2024-11-07 14:32:35
#>  4     4 A21   A2 Nachvollziehbarkeit des Lernangeb… A2.1 D… 2024-11-07 14:32:35
#>  5     5 A22   A2 Nachvollziehbarkeit des Lernangeb… A2.2 D… 2024-11-07 14:32:35
#>  6     6 A32   A3 Variation der Lehr- und Lernmetho… A3.2 D… 2024-11-07 14:32:35
#>  7     7 A41   A4  Schülerorientierung               A4.1 B… 2024-11-07 14:32:35
#>  8     8 A42   A4 Schülerorientierung                A4.2 A… 2024-11-07 14:32:35
#>  9     9 A43   A4 Schülerorientierung                A4.3 D… 2024-11-07 14:32:35
#> 10    10 A51   A5 Berücksichtigung unterschiedliche… A5.1 D… 2024-11-07 14:32:35
#> # ℹ 102 more rows
```
…
