MetaMaster • MetaMaster
…
master_raw <- readxl::read_excel("MasterData_2024_11_19.xlsx")
head(master_raw)

We will create the meta data based on this input, but before we can
do so, we need to consider all tables of the meta data. Based on the raw
data we build the two most important tables of the meta data. The
templates table contains information about the master, survey and the
report template that will be used for the report.

templates <- DB_Table("templates")
templates

# # A tibble: 121 × 8
#    stype   ganztag type  surveys                         rprtpckg                        ubb   report_tmpl   timestamp          
#    <chr>   <chr>   <chr> <chr>                           <chr>                           <chr> <chr>         <dttm>             
#  1 beru_bq FALSE   ubb   tmpl_ubb_beru_bq_eva_00_2022_p1 tmpl_ubb_beru_bq_eva_00_2022_p1 TRUE  rpt_ubb_p1    2024-11-06 20:35:07
#  2 beru_bq FALSE   leh   tmpl_bfr_beru_bq_leh_00_2022_p1 tmpl_bfr_beru_bq_00_2022_p1     FALSE rpt_leh_bq_p1 2024-11-06 20:35:07
#  3 beru_bq FALSE   elt   tmpl_bfr_beru_bq_elt_00_2022_p1 tmpl_bfr_beru_bq_00_2022_p1     FALSE rpt_elt_bq_p1 2024-11-06 20:35:07
#  4 beru_bq FALSE   all   NA                              NA                              FALSE rpt_all_bq_p1 2024-11-06 20:35:07
#  5 beru_bq FALSE   aus   tmpl_bfr_beru_bq_aus_00_2022_p1 tmpl_bfr_beru_bq_00_2022_p1     FALSE rpt_aus_bq_p1 2024-11-06 20:35:07
#  6 beru_bq FALSE   sus   tmpl_bfr_beru_bq_sus_00_2022_p1 tmpl_bfr_beru_bq_00_2022_p1     FALSE rpt_sus_bq_p1 2024-11-06 20:35:07
#  7 beru_fb FALSE   ubb   tmpl_ubb_beru_fb_eva_00_2022_p1 tmpl_ubb_beru_fb_eva_00_2022_p1 TRUE  rpt_ubb_fb_p1 2024-11-06 20:35:07
#  8 beru_fb FALSE   leh   tmpl_bfr_beru_fb_leh_00_2022_p1 tmpl_bfr_beru_fb_00_2022_p1     FALSE rpt_leh_fb_p1 2024-11-06 20:35:07
#  9 beru_fb FALSE   elt   tmpl_bfr_beru_fb_elt_00_2022_p1 tmpl_bfr_beru_fb_00_2022_p1     FALSE rpt_elt_p1    2024-11-06 20:35:07
# 10 beru_fb FALSE   sus   tmpl_bfr_beru_fb_sus_00_2022_p1 tmpl_bfr_beru_fb_00_2022_p1     FALSE rpt_sus_fb_p1 2024-11-06 20:35:07
# # ℹ 111 more rows
# # ℹ Use `print(n = ...)` to see more rows
…
In addition, the meta data contains information abouts sets, and
colors, and further smaller tables which will not(!) automatically be
generated . Let’s revise the sequentially. The sets table contains
information about the (color) sets, the labels, and so on.

sets <- DB_Table("sets")
sets
# # A tibble: 54 × 7
#    set   code  labels               sort  colors  text_color timestamp          
#    <chr> <chr> <chr>                <chr> <chr>   <chr>      <dttm>             
#  1 set01 1     stimmt gar nicht     1     #7b3294 white      2024-11-07 14:32:34
#  2 set01 2     stimmt eher nicht    2     #c2a5cf black      2024-11-07 14:32:34
#  3 set01 3     stimmt zum Teil      3     #f7f7f7 black      2024-11-07 14:32:34
#  4 set01 4     stimmt eher          4     #a6dba0 black      2024-11-07 14:32:34
#  5 set01 5     stimmt ganz genau    5     #008837 white      2024-11-07 14:32:34
#  6 set01 6     weiß nicht           6     #d0cece black      2024-11-07 14:32:34
#  7 set03 1     gar nicht zufrieden  1     #7b3294 white      2024-11-07 14:32:34
#  8 set03 2     eher nicht zufrieden 2     #c2a5cf black      2024-11-07 14:32:34
#  9 set03 3     eher zufrieden       3     #a6dba0 black      2024-11-07 14:32:34
# 10 set03 4     sehr zufrieden       4     #008837 white      2024-11-07 14:32:34
# # ℹ 44 more rows
…
